a1f6fb9211011fd2ef03fb2c13df60577d03321fb782919084
5015dbca7b51190e461284a24e90e336a89bf56837286b7544
62707401b899222a0fdb074d7e8a0e240263e9860abeadd811
afe638e1ccb72d4338aebed55750249ccd97a4b09fdf1ff42c
7400eb6a2f3928b8a7b6dee16995836015589fadc9e2168072
673b7550b29eab741a993b2f561100b157ad9b81268d775d7f
249f6f86a1ca3211489aec19de98cc910cc93dcfcc35ccefa6
2b854eca9c3b5414b55c35c1d2b16845f7a3fd0d75f38b71d7
b4ee1d33c13e2fc6f6ea97d67d6bcfb991ab4e218350346f27
64a2781c65b1b28eab3b51971252c8f48e2143a2d5e5a8ea43
242de1e26fec3f1ea01ce69b05b779fe7c3c75528c85ed1d93
6f55b76720eb7219ac4d1abe3a61a184751b7e57f1635d74d3
614c33b747ab7b521511bab09c000de985dd5fc73df3f93754
7aa4045e87b7e6645c530d7401f6933eb420873a738ef19fd7
85233385c7e5d5bf52b3154fec6e29fb5593c4e681f6eec384
ada4a4c5e427999072d8a8601978a38e4152d087a631c94492
5b2d90b8e68273edc49e1e8d8e2015d6d863526d75be9602cc
8a3ba923074e27c78de409a476963872aa684684096182f646
ff277c551255d8bcd525331de978a578a5e696d8cae05c6566
d2f958052b60d58ecdca221fe78a5db1f784342daa796c14c0
c3c205cbd9955316b11680e894ccde98381f7c1f6e1ccf68b2
0b512ca52adb8061432a8ed444ed64ce515c75e5a35f28eed7
390ce45beba7b8aa3c2c97da74c39d5b592678b31bac37614d
df14dabde0cc4876da7b1f66918b84b6a972880fbfdc607857
afd33cb26677c08be050a76b7c499489f62ea15861ba686bcc
455e0608ceebfed65e168ef8f6345259795c1a9c2bf859eb58
698459efbd8d0dd34a76f6b858ce1a18f8c191d838127d8efb
1de836b63f1affb75575bcd2be4b1e9e22b6a9e07a98418482
4a5fc195aaf578d245397c77224cb4c751399a273e7314c2a0
a2dab64d00647da25c6c36a854b0af41965c2c153edc2c6209
2c7ca3260165f6c55d8e72c12d6fe2377ee5d4bc6156116de3
5ca581a4c547d565afabd52425e9cc09b2e7da0a9de4bd3294
1a43a693a98e9d0923cf7699f61f8e37d805b4d59c544faa9e
4ad04d051ba933fc0eb3c8d010fd6bad438c14095e1c51a317
c2a32b01965e1658a89b638814ee3bc56bc321ddf89da68c2d
a094811233a244268425f1c64037d9fbb2218c2144ffc172ea
f0dd7e2a46c901ccb9b08ddcc08eab7fa7f318c461c15b71ec
efe10b334e842165b1ccb144b79d3911a28896318ef33b522e
c49927859ec6577bc1fc22dc3d3b3f6653e2844864fdd953a7
ea1a98378e58047345bd0a0c130829fe81c1ca1ae9f9c83040
